…
\#Question 1

\#\#Yield Spread

    ## [1] "/Users/camshepherd/Desktop/FMX/20887671"

\#\#Load in Data

Economists recently pointed out that the current yield spreads in local
mid to longer dated bond yields have since 2020 been the highest in
decades. Lets start our analysis with looking at the yield spreads over
the different dated SA bonds.

    ## # A tibble: 17,145 × 3
    ##    date       Ticker Yield
    ##    <date>     <chr>  <dbl>
    ##  1 1999-12-06 SA_3M   11.3
    ##  2 1999-12-07 SA_3M   11.3
    ##  3 1999-12-08 SA_3M   11.3
    ##  4 1999-12-09 SA_3M   11.3
    ##  5 1999-12-10 SA_3M   11.3
    ##  6 1999-12-13 SA_3M   11.3
    ##  7 1999-12-14 SA_3M   11.3
    ##  8 1999-12-15 SA_3M   11.3
    ##  9 1999-12-16 SA_3M   11.3
    ## 10 1999-12-17 SA_3M   11.3
    ## # … with 17,135 more rows
…
``` r
 #come back and add legend 
```

\`\` A cursory analysis indicates that bond yields for all maturities
have declined over the 20-year period examined. The largest decline is
experienced by the shortest maturity. We are however, more interested in
the spreads between bonds of different maturities.

    ## # A tibble: 11,430 × 3
    ##    date       Ticker       Spread
    ##    <date>     <chr>         <dbl>
    ##  1 1999-12-06 spread3M10Yr   2.75
    ##  2 1999-12-07 spread3M10Yr   2.72
    ##  3 1999-12-08 spread3M10Yr   2.83
    ##  4 1999-12-09 spread3M10Yr   2.76
    ##  5 1999-12-10 spread3M10Yr   2.67
    ##  6 1999-12-13 spread3M10Yr   2.66
    ##  7 1999-12-14 spread3M10Yr   2.62
    ##  8 1999-12-15 spread3M10Yr   2.55
    ##  9 1999-12-16 spread3M10Yr   2.55
    ## 10 1999-12-17 spread3M10Yr   2.45
    ## # … with 11,420 more rows
…
Evidently, the spread between the shortest dated maturity and the mid
and longer termed bonds have widened recently. The divergence seems to
have started in late 2018 and has continued to have widened since.

    ## # A tibble: 5,715 × 4
    ##    date       SA_3M ZA_10Yr ZA_2Yr
    ##    <date>     <dbl>   <dbl>  <dbl>
    ##  1 1999-12-06  11.3    14.0   12.7
    ##  2 1999-12-07  11.3    14.0   12.7
    ##  3 1999-12-08  11.3    14.1   12.8
    ##  4 1999-12-09  11.3    14.1   12.7
    ##  5 1999-12-10  11.3    14.0   12.7
    ##  6 1999-12-13  11.3    14.0   12.7
    ##  7 1999-12-14  11.3    13.9   12.6
    ##  8 1999-12-15  11.3    13.8   12.6
    ##  9 1999-12-16  11.3    13.8   12.6
    ## 10 1999-12-17  11.3    13.7   12.5
    ## # … with 5,705 more rows

\#\#Comparing local spreads to international spreads

    ## # A tibble: 149,948 × 3
    ##    date       Name     Bond_10Yr
    ##    <date>     <chr>        <dbl>
    ##  1 1999-11-02 AUS_10Yr      6.57
    ##  2 1999-11-03 AUS_10Yr      6.57
    ##  3 1999-11-04 AUS_10Yr      6.57
    ##  4 1999-11-05 AUS_10Yr      6.57
    ##  5 1999-11-08 AUS_10Yr      6.57
    ##  6 1999-11-09 AUS_10Yr      6.57
    ##  7 1999-11-10 AUS_10Yr      6.57
    ##  8 1999-11-11 AUS_10Yr      6.57
    ##  9 1999-11-12 AUS_10Yr      6.57
    ## 10 1999-11-15 AUS_10Yr      6.57
    ## # … with 149,938 more rows
…
\#Question 2

The ALSI Top40 is an equity Index of the 40 largest companies by market
capitalisation, listed on the JSE where the fund is rebalanced
quarterly.

The SWIX All Share Index represents 99% of the full market cap value of
all eligible securities listed on the Main Board of the JSE however, all
constituents are weighted by an alternate free float, called the SWIX
free float. The SWIX top 40 thus represents the largest 40 companies
weighted by the SWIX free float.

    ## # A tibble: 146,383 × 8
    ##    date       Tickers       Short.Name    Return Sector Index_Name   J400   J200
    ##    <date>     <chr>         <chr>          <dbl> <chr>  <chr>       <dbl>  <dbl>
    ##  1 2008-01-02 AGL SJ Equity ANGLO AMER…  1.06e-2 Resou… Large_Caps 0.0747 0.156 
    ##  2 2008-01-02 BHP SJ Equity BHP GROUP …  1.40e-2 Resou… Large_Caps 0.0686 0.143 
    ##  3 2008-01-02 CFR SJ Equity RICHEMONT-…  5.41e-3 Indus… Large_Caps 0.0431 0.0675
    ##  4 2008-01-02 MTN SJ Equity MTN GROUP …  2.69e-2 Indus… Large_Caps 0.106  0.0663
    ##  5 2008-01-02 SAB SJ Equity SABMILLER …  1.42e-2 Indus… Large_Caps 0.0381 0.0597
    ##  6 2008-01-02 SOL SJ Equity SASOL LTD    1.77e-2 Resou… Large_Caps 0.0709 0.0593
    ##  7 2008-01-02 IMP SJ Equity IMPALA PLA…  2.17e-2 Resou… Large_Caps 0.0501 0.0419
    ##  8 2008-01-02 SBK SJ Equity STANDARD B…  1.32e-2 Finan… Large_Caps 0.0612 0.0384
    ##  9 2008-01-02 OML SJ Equity OLD MUTUAL… -4.36e-4 Finan… Large_Caps 0.0224 0.0352
    ## 10 2008-01-02 REM SJ Equity REMGRO LTD  -1.61e-3 Indus… Large_Caps 0.0431 0.0271
    ## # … with 146,373 more rows

    ## # A tibble: 146,383 × 3
    ##    date       J400Return J200Return
    ##    <date>          <dbl>      <dbl>
    ##  1 2008-01-02       1.00       1.00
    ##  2 2008-01-02       1.00       1.00
    ##  3 2008-01-02       1.00       1.00
    ##  4 2008-01-02       1.00       1.01
    ##  5 2008-01-02       1.01       1.01
    ##  6 2008-01-02       1.01       1.01
    ##  7 2008-01-02       1.01       1.01
    ##  8 2008-01-02       1.01       1.01
    ##  9 2008-01-02       1.01       1.01
    ## 10 2008-01-02       1.01       1.01
    ## # … with 146,373 more rows
…
\#Question 3

PCA allows the modeler a means of identifying structure in the
covariance / correlation matrix to locate low-dimensional subspaces
containing most of the variation in the data.

Let’s ensure our data is mean centered, as well as scaled, when doing
the PCA (this is important, as our returns data are typically skew,
non-normal and non-zero meaned. Thus a log transformation, scaling and
mean-centering is standard practice).

    ## # A tibble: 144,663 × 3
    ##    date       Tickers          Return
    ##    <date>     <chr>             <dbl>
    ##  1 2008-01-02 AGL SJ Equity  0.0106  
    ##  2 2008-01-02 BHP SJ Equity  0.0140  
    ##  3 2008-01-02 CFR SJ Equity  0.00541 
    ##  4 2008-01-02 MTN SJ Equity  0.0269  
    ##  5 2008-01-02 SAB SJ Equity  0.0142  
    ##  6 2008-01-02 SOL SJ Equity  0.0177  
    ##  7 2008-01-02 IMP SJ Equity  0.0217  
    ##  8 2008-01-02 SBK SJ Equity  0.0132  
    ##  9 2008-01-02 OML SJ Equity -0.000436
    ## 10 2008-01-02 REM SJ Equity -0.00161 
    ## # … with 144,653 more rows

    ## # A tibble: 3,458 × 89
    ##    date       `ABG SJ Equity` `ACL SJ Equity` `AEG SJ Equity` `AGL SJ Equity`
    ##    <date>               <dbl>           <dbl>           <dbl>           <dbl>
    ##  1 2008-01-02       -0.000524        0.0257           0.00784        0.00996 
    ##  2 2008-01-03       -0.0185         -0.000614         0.00291       -0.0117  
    ##  3 2008-01-04       -0.0115          0.00439         -0.0183        -0.00240 
    ##  4 2008-01-07       -0.0171         -0.00346         -0.0221        -0.0272  
    ##  5 2008-01-08        0.0192          0.0197           0.0175        -0.00555 
    ##  6 2008-01-09       -0.00987         0.0159          -0.0231        -0.0356  
    ##  7 2008-01-10       -0.0128         -0.0260          -0.0428        -0.0237  
    ##  8 2008-01-11       -0.0174         -0.0227          -0.0440         0.00470 
    ##  9 2008-01-14        0.0281          0.0363           0.00398        0.0157  
    ## 10 2008-01-15       -0.0144          0.00709         -0.0291        -0.000591
    ## # … with 3,448 more rows, and 84 more variables: AMS SJ Equity <dbl>,
    ## #   ANG SJ Equity <dbl>, APN SJ Equity <dbl>, ARI SJ Equity <dbl>,
    ## #   ASR SJ Equity <dbl>, AXL SJ Equity <dbl>, BAT SJ Equity <dbl>,
    ## #   BAW SJ Equity <dbl>, BHP SJ Equity <dbl>, BID SJ Equity <dbl>,
    ## #   BTI SJ Equity <dbl>, BVT SJ Equity <dbl>, CCO SJ Equity <dbl>,
    ## #   CFR SJ Equity <dbl>, CLS SJ Equity <dbl>, CPI SJ Equity <dbl>,
    ## #   DSY SJ Equity <dbl>, EXX SJ Equity <dbl>, FFA SJ Equity <dbl>, …
…
\#Calcualating a rolling constituent correlation perspective

    ## # A tibble: 144,379 × 3
    ##    date       Tickers          Return
    ##    <date>     <chr>             <dbl>
    ##  1 2008-01-02 AGL SJ Equity  0.0106  
    ##  2 2008-01-02 BHP SJ Equity  0.0140  
    ##  3 2008-01-02 CFR SJ Equity  0.00541 
    ##  4 2008-01-02 MTN SJ Equity  0.0269  
    ##  5 2008-01-02 SAB SJ Equity  0.0142  
    ##  6 2008-01-02 SOL SJ Equity  0.0177  
    ##  7 2008-01-02 IMP SJ Equity  0.0217  
    ##  8 2008-01-02 SBK SJ Equity  0.0132  
    ##  9 2008-01-02 OML SJ Equity -0.000436
    ## 10 2008-01-02 REM SJ Equity -0.00161 
    ## # … with 144,369 more rows
…
\#Question 4

The South African rand (ZAR) has over the past few years been one of the
most volatile currencies

    ## # A tibble: 340,146 × 3
    ##    date       Name           Price
    ##    <date>     <chr>          <dbl>
    ##  1 1992-01-03 Argentina_Cncy 0.988
    ##  2 1992-01-06 Argentina_Cncy 0.992
    ##  3 1992-01-07 Argentina_Cncy 0.992
    ##  4 1992-01-08 Argentina_Cncy 0.996
    ##  5 1992-01-09 Argentina_Cncy 1.00 
    ##  6 1992-01-10 Argentina_Cncy 1.00 
    ##  7 1992-01-13 Argentina_Cncy 1.00 
    ##  8 1992-01-14 Argentina_Cncy 1.00 
    ##  9 1992-01-15 Argentina_Cncy 0.991
    ## 10 1992-01-16 Argentina_Cncy 0.994
    ## # … with 340,136 more rows

The ZAR has generally performed well during periods where G10 currency
carry trades have been favourable and these currency valuations
relatively cheap. Globally, it has been one of the currencies that most
benefit during periods where the Dollar is comparatively strong,
indicating a risk-on sentiment

    ## # A tibble: 11,627 × 42
    ##    date       `Argentina ` `Australia  ` `Bostwana  ` `Brazil ` `Bulgaria `
    ##    <date>            <dbl>         <dbl>        <dbl>     <dbl>       <dbl>
    ##  1 1990-01-01           NA          1.27           NA        NA          NA
    ##  2 1990-01-02           NA          1.27           NA        NA          NA
    ##  3 1990-01-03           NA          1.28           NA        NA          NA
    ##  4 1990-01-04           NA          1.27           NA        NA          NA
    ##  5 1990-01-05           NA          1.27           NA        NA          NA
    ##  6 1990-01-06           NA         NA              NA        NA          NA
    ##  7 1990-01-07           NA         NA              NA        NA          NA
    ##  8 1990-01-08           NA          1.27           NA        NA          NA
    ##  9 1990-01-09           NA          1.27           NA        NA          NA
    ## 10 1990-01-10           NA          1.27           NA        NA          NA
    ## # … with 11,617 more rows, and 36 more variables: Canada  <dbl>, Chile  <dbl>,
    ## #   China  <dbl>, Columbia  <dbl>, Czech  <dbl>, Denmark  <dbl>, Egypt  <dbl>,
    ## #   EU   <dbl>, Ghana  <dbl>, HongKong  <dbl>, Hungary  <dbl>, India  <dbl>,
    ## #   Israel  <dbl>, Japan  <dbl>, Malaysia  <dbl>, Mexico  <dbl>,
    ## #   Nigeria  <dbl>, Norway  <dbl>, NZ   <dbl>, Peru  <dbl>, Philipines  <dbl>,
    ## #   Poland  <dbl>, Romania  <dbl>, Russia  <dbl>, Saudi  <dbl>,
    ## #   Singapore  <dbl>, SouthAfrica  <dbl>, SouthKorea  <dbl>, Sweden  <dbl>, …

    ## # A tibble: 11,627 × 2
    ##    date       `SouthAfrica `
    ##    <date>              <dbl>
    ##  1 1990-01-01           2.55
    ##  2 1990-01-02           2.57
    ##  3 1990-01-03           2.58
    ##  4 1990-01-04           2.53
    ##  5 1990-01-05           2.54
    ##  6 1990-01-06          NA   
    ##  7 1990-01-07          NA   
    ##  8 1990-01-08           2.53
    ##  9 1990-01-09           2.54
    ## 10 1990-01-10           2.54
    ## # … with 11,617 more rows
…
We can note the relative depreciation of the ZAR to the USD over the 30
year window. Our concern falls on whether the ZAR has become more
volatile in comparison to global currencies.

    ## # A tibble: 11,627 × 4
    ##    date       `SouthAfrica `  dlogret scaledret
    ##    <date>              <dbl>    <dbl>     <dbl>
    ##  1 1990-01-01           2.55 NA        NA      
    ##  2 1990-01-02           2.57  0.00508   0.00491
    ##  3 1990-01-03           2.58  0.00486   0.00469
    ##  4 1990-01-04           2.53 -0.0188   -0.0190 
    ##  5 1990-01-05           2.54  0.00296   0.00279
    ##  6 1990-01-06          NA    NA        NA      
    ##  7 1990-01-07          NA    NA        NA      
    ##  8 1990-01-08           2.53 NA        NA      
    ##  9 1990-01-09           2.54  0.00375   0.00358
    ## 10 1990-01-10           2.54  0.00118   0.00101
    ## # … with 11,617 more rows
…
Maybe do the same for a g10 currency?

\#Question 5

    ## # A tibble: 4,269 × 2
    ##    date       MSCI_ACWI
    ##    <date>         <dbl>
    ##  1 2005-06-21  0.000407
    ##  2 2005-06-22  0.00104 
    ##  3 2005-06-23 -0.00672 
    ##  4 2005-06-24 -0.00651 
    ##  5 2005-06-27 -0.00256 
    ##  6 2005-06-28  0.00550 
    ##  7 2005-06-29 -0.000414
    ##  8 2005-06-30 -0.00428 
    ##  9 2005-07-01 -0.000613
    ## 10 2005-07-04 -0.000742
    ## # … with 4,259 more rows

    ## # A tibble: 4,269 × 2
    ##    date       EURO_10Yr
    ##    <date>         <dbl>
    ##  1 2005-06-21  -0.0111 
    ##  2 2005-06-22  -0.0117 
    ##  3 2005-06-23   0.0151 
    ##  4 2005-06-24   0.00528
    ##  5 2005-06-27   0.00555
    ##  6 2005-06-28   0.0277 
    ##  7 2005-06-29   0.0192 
    ##  8 2005-06-30  -0.00470
    ##  9 2005-07-01   0.0193 
    ## 10 2005-07-04   0.0170 
    ## # … with 4,259 more rows

    ## # A tibble: 4,269 × 2
    ##    date       MSCI_USREIT
    ##    <date>           <dbl>
    ##  1 2005-06-21   -0.00967 
    ##  2 2005-06-22   -0.000748
    ##  3 2005-06-23   -0.00186 
    ##  4 2005-06-24   -0.00484 
    ##  5 2005-06-27   -0.00176 
    ##  6 2005-06-28    0.00397 
    ##  7 2005-06-29    0.00209 
    ##  8 2005-06-30    0.000859
    ##  9 2005-07-01    0.00865 
    ## 10 2005-07-04   -0.000135
    ## # … with 4,259 more rows

    ## # A tibble: 4,269 × 2
    ##    date       Oil_Brent
    ##    <date>         <dbl>
    ##  1 2005-06-21  -0.0143 
    ##  2 2005-06-22  -0.0163 
    ##  3 2005-06-23   0.0239 
    ##  4 2005-06-24   0.00671
    ##  5 2005-06-27   0.0158 
    ##  6 2005-06-28  -0.0366 
    ##  7 2005-06-29  -0.0183 
    ##  8 2005-06-30  -0.0104 
    ##  9 2005-07-01   0.0345 
    ## 10 2005-07-04   0.00676
    ## # … with 4,259 more rows
…
